"","names","occurences","hgnc_symbol","description","chromosome_name","band","median_log2FC","sd_log2FC","mean_log2FC","pseudotscore","Blood","Brain","Endothelia","Fibroblasts","Heart","Liver","Muscle","placenta","Undifferentiated","Human","Mouse","consistently_DE"
"ENSG00000159110","ENSG00000159110",12,"IFNAR2","interferon alpha and beta receptor subunit 2 ","21","q22.11",0.67492495928318,0.294570601522895,0.77916623143137,9.1628661747239,1,1,1,1,0,1,0,0,0,1,1,"yes"
"ENSG00000160299","ENSG00000160299",10,"PCNT","pericentrin ","21","q22.3",0.703377412661877,0.166231524091758,0.742259902231493,14.1202573921525,1,1,0,1,0,0,0,0,0,1,0,"yes"
"ENSG00000142166","ENSG00000142166",9,"IFNAR1","interferon alpha and beta receptor subunit 1 ","21","q22.11",0.691651756788257,0.136341121153805,0.726864340937084,15.9936562378077,1,1,0,1,0,0,0,0,0,1,1,"yes"
"ENSG00000055332","ENSG00000055332",6,"EIF2AK2","eukaryotic translation initiation factor 2 alpha kinase 2 ","2","p22.2",0.708794355167258,0.0262663070565483,0.695602817150154,64.8691101490646,0,1,0,0,0,0,0,0,0,1,1,"yes"
"ENSG00000008311","ENSG00000008311",5,"AASS","aminoadipate-semialdehyde synthase ","7","q31.32",-0.640390186018381,2.20823386321387,-0.326290158178546,-0.330402946096712,1,0,0,1,0,0,0,0,1,1,1,"yes"
"ENSG00000100448","ENSG00000100448",5,"CTSG","cathepsin G ","14","q12",0.868981521113135,3.3001883959489,0.634758824302913,0.43008571334942,1,1,0,0,0,0,0,0,0,1,1,"yes"
"ENSG00000114745","ENSG00000114745",5,"GORASP1","golgi reassembly stacking protein 1 ","3","p22.2",-0.759009550544675,0.959947556352191,-0.73504159459424,-1.71217996329744,0,1,0,0,0,0,0,0,0,1,0,"yes"
"ENSG00000142156","ENSG00000142156",5,"COL6A1","collagen type VI alpha 1 chain ","21","q22.3",-0.864017602709174,1.77401009615978,-1.22511332373993,-1.54420579564529,1,0,0,1,0,0,0,1,0,1,1,"yes"
"ENSG00000148175","ENSG00000148175",5,"STOM","stomatin ","9","q33.2",0.910296177086311,0.873227445672754,0.629410064637749,1.61172635746492,0,1,0,0,0,0,0,0,0,1,0,"yes"
"ENSG00000155506","ENSG00000155506",5,"LARP1","La ribonucleoprotein 1, translational regulator ","5","q33.2",0.643140462948835,0.910486470050478,0.746574670172481,1.83351622203963,1,1,0,0,0,0,0,0,0,1,1,"yes"
"ENSG00000170345","ENSG00000170345",5,"FOS","Fos proto-oncogene, AP-1 transcription factor subunit ","14","q24.3",-0.898416056886091,1.55462595448982,-0.0254920083065903,-0.0366659666860067,1,1,0,0,0,0,0,0,0,1,1,"yes"
"ENSG00000171791","ENSG00000171791",5,"BCL2","BCL2 apoptosis regulator ","18","q21.33",-0.608226036495563,1.17500646029488,-0.337859605357765,-0.642955651700517,1,1,0,0,0,0,0,0,0,1,0,"yes"
"ENSG00000057294","ENSG00000057294",4,"PKP2","plakophilin 2 ","12","p11.21",-0.0883317515859056,1.85238616709391,0.390923852848681,0.422075979396861,0,0,0,1,0,0,0,0,1,1,1,"yes"
"ENSG00000083290","ENSG00000083290",4,"ULK2","unc-51 like autophagy activating kinase 2 ","17","p11.2",-0.144322503317252,1.65945308834563,0.0699389471158143,0.0842915628130698,1,0,0,0,0,0,0,1,0,1,0,"yes"
"ENSG00000105223","ENSG00000105223",4,"PLD3","phospholipase D family member 3 ","19","q13.2",-1.01089068924513,1.08325543593607,-0.812206415337658,-1.49956582426158,1,1,0,0,0,0,0,0,1,1,1,"yes"
"ENSG00000130303","ENSG00000130303",4,"BST2","bone marrow stromal cell antigen 2 ","19","p13.11",3.08947723205352,1.15714738398373,2.7419087180317,4.73908294826209,0,1,0,1,0,0,0,1,1,1,0,"yes"
"ENSG00000135837","ENSG00000135837",4,"CEP350","centrosomal protein 350 ","1","q25.2",-0.849781436458352,1.42029368293695,-0.586955859808511,-0.826527452540344,1,0,1,0,0,0,0,0,1,1,0,"yes"
"ENSG00000137710","ENSG00000137710",4,"RDX","radixin ","11","q22.3",0.85790757425478,0.320614184859871,0.949202793809266,5.92115282874418,0,1,0,0,0,0,0,1,1,1,1,"yes"
"ENSG00000154734","ENSG00000154734",4,"ADAMTS1","ADAM metallopeptidase with thrombospondin type 1 motif 1 ","21","q21.3",0.788151162853861,1.54800595624484,0.812889553101697,1.05024085963288,1,0,0,1,0,0,0,0,0,1,1,"yes"
"ENSG00000161203","ENSG00000161203",4,"AP2M1","adaptor related protein complex 2 subunit mu 1 ","3","q27.1",-0.031824115878504,0.852014832243271,0.0343175498991568,0.0805562264891612,0,1,0,0,0,0,0,0,0,1,0,"yes"
"ENSG00000163751","ENSG00000163751",4,"CPA3","carboxypeptidase A3 ","3","q24",2.84308744214662,2.64314157343701,2.34188740471356,1.77204840501092,1,0,0,0,0,0,0,0,1,1,1,"yes"
"ENSG00000165949","ENSG00000165949",4,"IFI27","interferon alpha inducible protein 27 ","14","q32.12",3.37310250167764,1.95331346798843,3.24106059781103,3.31852582898408,1,0,0,1,0,0,0,1,0,1,0,"yes"
"ENSG00000172531","ENSG00000172531",4,"PPP1CA","protein phosphatase 1 catalytic subunit alpha ","11","q13.2",-1.17650308720578,0.470228688823582,-1.20618708676423,-5.13021478881633,0,1,0,0,0,0,0,0,1,1,0,"yes"
"ENSG00000185201","ENSG00000185201",4,"IFITM2","interferon induced transmembrane protein 2 ","11","p15.5",-1.08762911581962,1.07835452904325,-0.85138590450957,-1.57904637404352,1,1,0,0,0,0,0,0,1,1,0,"yes"
"ENSG00000198732","ENSG00000198732",4,"SMOC1","SPARC related modular calcium binding 1 ","14","q24.2",-4.20522409416865,3.9664249654785,-3.90406827684955,-1.96855773691843,0,1,0,1,0,0,0,0,1,1,0,"yes"
"ENSG00000233276","ENSG00000233276",4,"GPX1","glutathione peroxidase 1 ","3","p21.31",-0.919827579144768,0.936647511364748,-1.32375816165459,-2.82658768766875,1,0,0,0,0,0,0,0,1,1,1,"no"
"ENSG00000275214","ENSG00000275214",4,"IFI27","interferon alpha inducible protein 27 ","CHR_HSCHR14_7_CTG1","",2.20696257522301,3.00029989381954,2.15639253865922,1.43745133151607,1,0,0,1,0,0,0,1,0,1,0,"yes"
"ENSG00000067955","ENSG00000067955",3,"CBFB","core-binding factor subunit beta ","16","q22.1",1.32654390093746,0.65998048801529,1.48128156869679,3.88747089328908,0,1,0,0,0,0,0,0,0,1,0,"no"
"ENSG00000075413","ENSG00000075413",3,"MARK3","microtubule affinity regulating kinase 3 ","14","q32.32",0.618733638677934,0.998708010113944,0.476958146238772,0.827184456320889,0,0,1,1,0,0,0,0,1,1,1,"no"
"ENSG00000122140","ENSG00000122140",3,"MRPS2","mitochondrial ribosomal protein S2 ","9","q34.3",0.691840733293521,1.7260138854656,0.0715029276711707,0.0717530169712289,1,0,0,0,0,0,0,0,1,1,0,"no"
"ENSG00000150093","ENSG00000150093",3,"ITGB1","integrin subunit beta 1 ","10","p11.22",1.01373569146116,1.0644490871219,0.61086478906172,0.993987278499663,1,1,0,0,0,0,0,0,0,1,0,"no"
"ENSG00000156711","ENSG00000156711",3,"MAPK13","mitogen-activated protein kinase 13 ","6","p21.31",-1.27420759501893,1.49078421699306,-0.523307084318302,-0.60799842637739,1,0,0,1,0,0,0,0,0,1,1,"no"
"ENSG00000164733","ENSG00000164733",3,"CTSB","cathepsin B ","8","p23.1",-0.959846444722627,1.35159250896089,-0.229803690010497,-0.294490879629837,1,1,0,0,0,0,0,0,1,1,1,"no"
"ENSG00000168615","ENSG00000168615",3,"ADAM9","ADAM metallopeptidase domain 9 ","8","p11.22",0.614970179043223,0.20046450178492,0.726022370715079,6.27296914073751,0,1,0,0,0,0,0,0,1,1,1,"yes"
"ENSG00000185386","ENSG00000185386",3,"MAPK11","mitogen-activated protein kinase 11 ","22","q13.33",1.48565208872013,1.71695554003593,0.588723523774774,0.593899510506575,1,0,0,0,0,1,0,0,0,1,1,"no"
"ENSG00000185885","ENSG00000185885",3,"IFITM1","interferon induced transmembrane protein 1 ","11","p15.5",1.76274017506019,1.94630947008133,0.741402087462608,0.659785149310917,0,1,1,0,0,0,0,0,1,1,0,"no"
"ENSG00000005249","ENSG00000005249",2,"PRKAR2B","protein kinase cAMP-dependent type II regulatory subunit beta ","7","q22.3",1.00249838906467,0.55256680491865,1.00249838906467,2.56574735480383,1,0,0,0,0,0,0,0,1,1,0,"no"
"ENSG00000073060","ENSG00000073060",2,"SCARB1","scavenger receptor class B member 1 ","12","q24.31",1.33676566791503,0.575658342599444,1.33676566791503,3.28401761493379,1,0,0,0,0,0,0,1,0,1,0,"no"
"ENSG00000102882","ENSG00000102882",2,"MAPK3","mitogen-activated protein kinase 3 ","16","p11.2",-1.65774223229582,0.059668282776922,-1.65774223229582,-39.2905818422202,1,0,0,0,0,0,0,0,1,1,0,"no"
"ENSG00000104368","ENSG00000104368",2,"PLAT","plasminogen activator, tissue type ","8","p11.21",1.49342701698745,1.1226533876213,1.49342701698745,1.88127944486326,0,0,0,0,0,0,0,0,1,1,1,"no"
"ENSG00000105329","ENSG00000105329",2,"TGFB1","transforming growth factor beta 1 ","19","q13.2",-1.1192214850416,0.669002062557467,-1.1192214850416,-2.36593919814593,0,0,0,0,0,0,0,1,1,1,0,"no"
"ENSG00000115761","ENSG00000115761",2,"NOL10","nucleolar protein 10 ","2","p25.1",-0.711824683940375,0.0563056128629437,-0.711824683940375,-17.8787170741008,0,1,0,0,0,0,0,0,0,1,0,"no"
"ENSG00000126883","ENSG00000126883",2,"NUP214","nucleoporin 214 ","9","q34.13",0.315944453124035,1.75821533697029,0.315944453124035,0.254128673075107,0,1,1,0,0,0,0,0,0,1,0,"no"
"ENSG00000127463","ENSG00000127463",2,"EMC1","ER membrane protein complex subunit 1 ","1","p36.13",1.33010269069552,0.36032217034989,1.33010269069552,5.22046495974412,1,0,0,0,0,0,0,1,0,1,0,"no"
"ENSG00000132182","ENSG00000132182",2,"NUP210","nucleoporin 210 ","3","p25.1",-1.06666364367755,2.74722078971012,-1.06666364367755,-0.549096817055707,1,0,0,0,0,0,0,0,0,1,1,"no"
"ENSG00000135744","ENSG00000135744",2,"AGT","angiotensinogen ","1","q42.2",1.01393077661832,0.402014462726434,1.01393077661832,3.56682355623827,0,1,0,0,0,0,0,0,0,1,0,"no"
"ENSG00000140545","ENSG00000140545",2,"MFGE8","milk fat globule-EGF factor 8 protein ","15","q26.1",-1.39318754097722,0.959412101863148,-1.39318754097722,-2.05361670084525,1,0,0,0,0,0,0,0,1,1,0,"no"
"ENSG00000164251","ENSG00000164251",2,"F2RL1","F2R like trypsin receptor 1 ","5","q13.3",0.928764812621131,0.347666938995924,0.928764812621131,3.7779600155743,0,1,0,0,0,0,0,0,1,1,0,"no"
"ENSG00000165527","ENSG00000165527",2,"ARF6","ADP ribosylation factor 6 ","14","q21.3",0.15492071759863,1.079785336289,0.15492071759863,0.202902347862516,1,0,0,0,0,0,0,0,0,1,0,"no"
"ENSG00000184012","ENSG00000184012",2,"TMPRSS2","transmembrane serine protease 2 ","21","q22.3",0.667822178623338,0.0382627325387908,0.667822178623338,24.6831085915047,0,1,0,0,0,1,0,0,0,1,1,"no"
"ENSG00000282230","ENSG00000282230",2,"ADAM9","ADAM metallopeptidase domain 9 ","CHR_HSCHR8_9_CTG1","",0.781548466551007,0.248743138677368,0.781548466551007,4.44344494053331,0,1,0,0,0,0,0,0,0,1,0,"no"
"ENSG00000067560","ENSG00000067560",1,"RHOA","ras homolog family member A ","3","p21.31",1.08731063510374,NA,1.08731063510374,NA,0,1,0,0,0,0,0,0,0,1,0,"no"
"ENSG00000072062","ENSG00000072062",1,"PRKACA","protein kinase cAMP-activated catalytic subunit alpha ","19","p13.12",0.705882911906464,NA,0.705882911906464,NA,0,1,0,0,0,0,0,0,0,1,0,"no"
"ENSG00000089127","ENSG00000089127",1,"OAS1","2'-5'-oligoadenylate synthetase 1 ","12","q24.13",0.640946715396893,NA,0.640946715396893,NA,0,0,0,1,0,0,0,0,0,1,0,"no"
"ENSG00000100030","ENSG00000100030",1,"MAPK1","mitogen-activated protein kinase 1 ","22","q11.22",0.956343682650163,NA,0.956343682650163,NA,0,0,0,0,0,0,0,0,1,0,1,"no"
"ENSG00000100739","ENSG00000100739",1,"BDKRB1","bradykinin receptor B1 ","14","q32.2",0.676488355521875,NA,0.676488355521875,NA,0,1,0,0,0,0,0,0,0,1,0,"no"
"ENSG00000100906","ENSG00000100906",1,"NFKBIA","NFKB inhibitor alpha ","14","q13.2",0.771577360545638,NA,0.771577360545638,NA,0,0,0,1,0,0,0,0,0,1,0,"no"
"ENSG00000101004","ENSG00000101004",1,"NINL","ninein like ","20","p11.21",-0.904031927645797,NA,-0.904031927645797,NA,0,1,0,0,0,0,0,0,0,1,0,"no"
"ENSG00000109339","ENSG00000109339",1,"MAPK10","mitogen-activated protein kinase 10 ","4","q21.3",-4.41350663780255,NA,-4.41350663780255,NA,0,0,0,0,0,0,0,0,1,1,0,"no"
"ENSG00000111335","ENSG00000111335",1,"OAS2","2'-5'-oligoadenylate synthetase 2 ","12","q24.13",1.69390153645,NA,1.69390153645,NA,0,0,0,1,0,0,0,0,0,0,1,"no"
"ENSG00000112062","ENSG00000112062",1,"MAPK14","mitogen-activated protein kinase 14 ","6","p21.31",-0.925650046686536,NA,-0.925650046686536,NA,1,0,0,0,0,0,0,0,0,1,0,"no"
"ENSG00000115085","ENSG00000115085",1,"ZAP70","zeta chain of T cell receptor associated protein kinase 70 ","2","q11.2",0.608199582317339,NA,0.608199582317339,NA,0,1,0,0,0,0,0,0,0,1,0,"no"
"ENSG00000115415","ENSG00000115415",1,"STAT1","signal transducer and activator of transcription 1 ","2","q32.2",2.16260380885772,NA,2.16260380885772,NA,0,0,1,0,0,0,0,0,0,1,0,"no"
"ENSG00000116141","ENSG00000116141",1,"MARK1","microtubule affinity regulating kinase 1 ","1","q41",2.03000326097702,NA,2.03000326097702,NA,0,0,0,1,0,0,0,0,0,1,0,"no"
"ENSG00000119397","ENSG00000119397",1,"CNTRL","centriolin ","9","q33.2",-0.669784454561105,NA,-0.669784454561105,NA,1,0,0,0,0,0,0,0,0,1,0,"no"
"ENSG00000130640","ENSG00000130640",1,"TUBGCP2","tubulin gamma complex associated protein 2 ","10","q26.3",-0.904324624189599,NA,-0.904324624189599,NA,1,0,0,0,0,0,0,0,0,1,0,"no"
"ENSG00000136634","ENSG00000136634",1,"IL10","interleukin 10 ","1","q32.1",0.963053419257266,NA,0.963053419257266,NA,0,1,0,0,0,0,0,0,0,1,0,"no"
"ENSG00000136861","ENSG00000136861",1,"CDK5RAP2","CDK5 regulatory subunit associated protein 2 ","9","q33.2",0.97023383238957,NA,0.97023383238957,NA,1,0,0,0,0,0,0,0,0,1,0,"no"
"ENSG00000142208","ENSG00000142208",1,"AKT1","AKT serine/threonine kinase 1 ","14","q32.33",0.957569469004619,NA,0.957569469004619,NA,0,0,0,0,0,0,0,0,1,0,1,"no"
"ENSG00000144029","ENSG00000144029",1,"MRPS5","mitochondrial ribosomal protein S5 ","2","q11.1",1.1636152267324,NA,1.1636152267324,NA,1,0,0,0,0,0,0,0,0,1,0,"no"
"ENSG00000147684","ENSG00000147684",1,"NDUFB9","NADH:ubiquinone oxidoreductase subunit B9 ","8","q24.13",-1.2983512503846,NA,-1.2983512503846,NA,0,1,0,0,0,0,0,0,0,1,0,"no"
"ENSG00000162711","ENSG00000162711",1,"NLRP3","NLR family pyrin domain containing 3 ","1","q44",-3.86428193775478,NA,-3.86428193775478,NA,1,0,0,0,0,0,0,0,0,1,0,"no"
"ENSG00000167461","ENSG00000167461",1,"RAB8A","RAB8A, member RAS oncogene family ","19","p13.11",-0.824394818105718,NA,-0.824394818105718,NA,0,1,0,0,0,0,0,0,0,1,0,"no"
"ENSG00000169245","ENSG00000169245",1,"CXCL10","C-X-C motif chemokine ligand 10 ","4","q21.1",4.29973968505898,NA,4.29973968505898,NA,0,0,1,0,0,0,0,0,0,1,0,"no"
"ENSG00000170581","ENSG00000170581",1,"STAT2","signal transducer and activator of transcription 2 ","12","q13.3",0.592232475786506,NA,0.592232475786506,NA,0,0,0,0,0,0,0,1,0,1,0,"no"
"ENSG00000171855","ENSG00000171855",1,"IFNB1","interferon beta 1 ","9","p21.3",0.589643786862984,NA,0.589643786862984,NA,0,1,0,0,0,0,0,0,0,1,0,"no"
"ENSG00000173039","ENSG00000173039",1,"RELA","RELA proto-oncogene, NF-kB subunit ","11","q13.1",-0.91138873271502,NA,-0.91138873271502,NA,0,1,0,0,0,0,0,0,0,1,0,"no"
"ENSG00000178035","ENSG00000178035",1,"IMPDH2","inosine monophosphate dehydrogenase 2 ","3","p21.31",0.832974242920539,NA,0.832974242920539,NA,1,0,0,0,0,0,0,0,0,0,1,"no"
"ENSG00000188342","ENSG00000188342",1,"GTF2F2","general transcription factor IIF subunit 2 ","13","q14.12",-0.616618117174943,NA,-0.616618117174943,NA,0,0,0,0,0,0,0,0,1,1,0,"no"
"ENSG00000188379","ENSG00000188379",1,"IFNA2","interferon alpha 2 ","9","p21.3",0.643773931004062,NA,0.643773931004062,NA,0,1,0,0,0,0,0,0,0,1,0,"no"
"ENSG00000197919","ENSG00000197919",1,"IFNA1","interferon alpha 1 ","9","p21.3",-1.68206970642296,NA,-1.68206970642296,NA,0,0,0,1,0,0,0,0,0,1,0,"no"
"ENSG00000213024","ENSG00000213024",1,"NUP62","nucleoporin 62 ","19","q13.33",-0.724549626047149,NA,-0.724549626047149,NA,1,0,0,0,0,0,0,0,0,1,0,"no"
