"","ID","Description","GeneRatio","BgRatio","pvalue","p.adjust","qvalue","geneID","Count"
"hsa04621","hsa04621","NOD-like receptor signaling pathway","33/84","181/8035",2.0222932544191e-33,4.42882222717783e-31,1.53268541387553e-31,"MAPK13/MAPK12/MAPK1/NFKBIA/NFKB1/OAS3/MAPK14/MAPK3/TYK2/IFNAR1/IFNA1/CXCL8/IRF3/STAT2/BCL2/NLRP3/MAPK11/JAK1/OAS2/CASP8/MAPK10/CTSB/IFNAR2/MAPK8/STAT1/CHUK/JUN/IRF9/RELA/MAPK9/OAS1/RHOA/IKBKB",33
"hsa05169","hsa05169","Epstein-Barr virus infection","32/84","201/8035",2.30219494255733e-30,2.52090346210027e-28,8.72410715074355e-29,"MAPK13/MAPK12/NFKBIA/NFKB1/OAS3/EIF2AK2/MAPK14/TYK2/IFNAR1/AKT1/IFNA1/CXCL10/CASP3/IRF3/STAT2/BCL2/MAPK11/JAK1/OAS2/CASP8/MAPK10/IFNAR2/MAPK8/STAT1/CHUK/JUN/IRF9/RELA/MAPK9/OAS1/HDAC2/IKBKB",32
"hsa05161","hsa05161","Hepatitis B","29/84","162/8035",5.98651958234143e-29,4.37015929510925e-27,1.51238389448626e-27,"MAPK13/MAPK12/MAPK1/NFKBIA/TGFB1/NFKB1/MAPK14/MAPK3/TYK2/IFNAR1/AKT1/IFNA1/FOS/CXCL8/CASP3/IRF3/STAT2/BCL2/MAPK11/JAK1/CASP8/MAPK10/MAPK8/STAT1/CHUK/JUN/RELA/MAPK9/IKBKB",29
"hsa05167","hsa05167","Kaposi sarcoma-associated herpesvirus infection","30/84","186/8035",1.48235190790366e-28,8.11587669577253e-27,2.80866677287009e-27,"MAPK13/MAPK12/MAPK1/NFKBIA/NFKB1/EIF2AK2/MAPK14/MAPK3/TYK2/IFNAR1/AKT1/IFNA1/FOS/CXCL8/CASP3/IRF3/STAT2/MAPK11/JAK1/CASP8/MAPK10/IFNAR2/MAPK8/STAT1/CHUK/JUN/IRF9/RELA/MAPK9/IKBKB",30
"hsa04620","hsa04620","Toll-like receptor signaling pathway","25/84","104/8035",2.48626373354334e-28,1.08898351529198e-26,3.76865239610779e-27,"MAPK13/MAPK12/MAPK1/NFKBIA/NFKB1/MAPK14/MAPK3/IFNAR1/AKT1/IFNA1/CXCL10/FOS/CXCL8/IRF3/MAPK11/CASP8/MAPK10/IFNAR2/MAPK8/STAT1/CHUK/JUN/RELA/MAPK9/IKBKB",25
"hsa05162","hsa05162","Measles","27/84","138/8035",5.24423723482172e-28,1.91414659070993e-26,6.62429966503796e-27,"NFKBIA/NFKB1/OAS3/EIF2AK2/TYK2/IFNAR1/AKT1/IFNA1/FOS/CASP3/IRF3/STAT2/BCL2/JAK1/OAS2/CASP8/MAPK10/IFNAR2/MAPK8/STAT1/CHUK/JUN/IRF9/RELA/MAPK9/OAS1/IKBKB",27
"hsa05164","hsa05164","Influenza A","28/84","170/8035",7.48481567726739e-27,2.34167804760223e-25,8.10386058290604e-26,"MAPK1/NFKBIA/NFKB1/OAS3/EIF2AK2/MAPK3/TYK2/IFNAR1/AKT1/IFNA1/CXCL10/CXCL8/CASP3/IRF3/STAT2/NLRP3/JAK1/OAS2/CASP8/IFNAR2/STAT1/CHUK/IRF9/RELA/OAS1/TMPRSS2/RAE1/IKBKB",28
"hsa05135","hsa05135","Yersinia infection","25/84","120/8035",1.24687020690043e-26,3.41330719138991e-25,1.18124545916882e-25,"MAPK13/MAPK12/MAPK1/NFKBIA/NFKB1/MAPK14/MAPK3/ZAP70/AKT1/ARF6/ITGB1/FOS/CXCL8/IRF3/NLRP3/MAPK11/MAPK10/MAPK8/CHUK/JUN/RELA/MAPK9/RHOA/IL10/IKBKB",25
"hsa04380","hsa04380","Osteoclast differentiation","25/84","128/8035",7.07881019750898e-26,1.56055918803286e-24,5.40063742073377e-25,"MAPK13/MAPK12/MAPK1/NFKBIA/TGFB1/NFKB1/MAPK14/MAPK3/TYK2/IFNAR1/AKT1/FOS/STAT2/MAPK11/JAK1/MAPK10/IFNAR2/MAPK8/STAT1/CHUK/JUN/IRF9/RELA/MAPK9/IKBKB",25
"hsa05145","hsa05145","Toxoplasmosis","24/84","112/8035",7.12584104124594e-26,1.56055918803286e-24,5.40063742073377e-25,"MAPK13/MAPK12/MAPK1/NFKBIA/TGFB1/NFKB1/MAPK14/MAPK3/TYK2/AKT1/ITGB1/CASP3/BCL2/MAPK11/JAK1/CASP8/MAPK10/MAPK8/STAT1/CHUK/RELA/MAPK9/IL10/IKBKB",24
"hsa04625","hsa04625","C-type lectin receptor signaling pathway","23/84","104/8035",3.91074129243005e-25,7.78593039129256e-24,2.69448203880348e-24,"MAPK13/MAPK12/MAPK1/NFKBIA/NFKB1/MAPK14/MAPK3/AKT1/STAT2/NLRP3/MAPK11/CASP8/MAPK10/MAPK8/STAT1/CHUK/JUN/IRF9/RELA/MAPK9/RHOA/IL10/IKBKB",23
"hsa05160","hsa05160","Hepatitis C","25/84","155/8035",1.10843432787663e-23,2.02289264837484e-22,7.00063786027343e-23,"MAPK1/NFKBIA/NFKB1/OAS3/EIF2AK2/SCARB1/MAPK3/TYK2/IFNAR1/AKT1/IFNA1/CXCL10/CASP3/IRF3/STAT2/JAK1/OAS2/CASP8/IFNAR2/STAT1/CHUK/IRF9/RELA/OAS1/IKBKB",25
"hsa05133","hsa05133","Pertussis","20/84","76/8035",1.50931126469862e-23,2.5426089766846e-22,8.79922356747374e-23,"MAPK13/MAPK12/MAPK1/NFKB1/MAPK14/MAPK3/ITGB1/FOS/CXCL8/CASP3/IRF3/NLRP3/MAPK11/MAPK10/MAPK8/JUN/RELA/MAPK9/RHOA/IL10",20
"hsa05142","hsa05142","Chagas disease (American trypanosomiasis)","21/84","102/8035",2.98607108088503e-22,4.67106833367015e-21,1.61651968288513e-21,"MAPK13/MAPK12/MAPK1/NFKBIA/TGFB1/NFKB1/MAPK14/MAPK3/AKT1/FOS/CXCL8/MAPK11/CASP8/MAPK10/MAPK8/CHUK/JUN/RELA/MAPK9/IL10/IKBKB",21
"hsa04659","hsa04659","Th17 cell differentiation","21/84","107/8035",8.77532755695313e-22,1.28119782331516e-20,4.43384971298684e-21,"MAPK13/MAPK12/MAPK1/NFKBIA/TGFB1/NFKB1/MAPK14/MAPK3/TYK2/ZAP70/FOS/MAPK11/JAK1/MAPK10/MAPK8/STAT1/CHUK/JUN/RELA/MAPK9/IKBKB",21
"hsa04658","hsa04658","Th1 and Th2 cell differentiation","20/84","92/8035",1.02235491604756e-21,1.3993482913401e-20,4.84273381285688e-21,"MAPK13/MAPK12/MAPK1/NFKBIA/NFKB1/MAPK14/MAPK3/TYK2/ZAP70/FOS/MAPK11/JAK1/MAPK10/MAPK8/STAT1/CHUK/JUN/RELA/MAPK9/IKBKB",20
"hsa04657","hsa04657","IL-17 signaling pathway","20/84","94/8035",1.6292138547212e-21,2.09881078931731e-20,7.26336826872607e-21,"MAPK13/MAPK12/MAPK1/NFKBIA/NFKB1/MAPK14/MAPK3/CXCL10/FOS/CXCL8/CASP3/MAPK11/CASP8/MAPK10/MAPK8/CHUK/JUN/RELA/MAPK9/IKBKB",20
"hsa04933","hsa04933","AGE-RAGE signaling pathway in diabetic complications","20/84","100/8035",6.17136278470834e-21,7.50849138806181e-20,2.59846854092983e-20,"MAPK13/MAPK12/MAPK1/TGFB1/NFKB1/MAPK14/MAPK3/AKT1/AGTR1/CXCL8/CASP3/BCL2/MAPK11/MAPK10/MAPK8/STAT1/AGT/JUN/RELA/MAPK9",20
"hsa04660","hsa04660","T cell receptor signaling pathway","20/84","104/8035",1.42608391592048e-20,1.64374935571887e-19,5.68853417984901e-20,"MAPK13/MAPK12/MAPK1/NFKBIA/NFKB1/MAPK14/MAPK3/ZAP70/AKT1/FOS/MAPK11/MAPK10/MAPK8/CHUK/JUN/RELA/MAPK9/RHOA/IL10/IKBKB",20
"hsa04668","hsa04668","TNF signaling pathway","20/84","112/8035",6.84962691141593e-20,7.50034146800045e-19,2.59564809274709e-19,"MAPK13/MAPK12/MAPK1/NFKBIA/NFKB1/MAPK14/MAPK3/AKT1/CXCL10/FOS/CASP3/MAPK11/CASP8/MAPK10/MAPK8/CHUK/JUN/RELA/MAPK9/IKBKB",20
"hsa04622","hsa04622","RIG-I-like receptor signaling pathway","17/84","70/8035",1.9707155770841e-19,2.05517481610199e-18,7.11235696992756e-19,"MAPK13/MAPK12/NFKBIA/NFKB1/MAPK14/IFNA1/CXCL10/CXCL8/IRF3/MAPK11/CASP8/MAPK10/MAPK8/CHUK/RELA/MAPK9/IKBKB",17
"hsa05132","hsa05132","Salmonella infection","24/84","214/8035",7.06747094364148e-19,7.03534607571584e-18,2.43472683225927e-18,"MAPK13/MAPK12/MAPK1/NFKBIA/NFKB1/MAPK14/MAPK3/AKT1/ARF6/FOS/CXCL8/CASP3/BCL2/NLRP3/MAPK11/CASP8/MAPK10/MAPK8/CHUK/JUN/RELA/MAPK9/RHOA/IKBKB",24
"hsa05130","hsa05130","Pathogenic Escherichia coli infection","23/84","202/8035",3.05046904302536e-18,2.90457704531546e-17,1.00518888374291e-17,"MAPK13/MAPK12/MAPK1/NFKBIA/NFKB1/MAPK14/MAPK3/ARF6/ITGB1/FOS/CXCL8/CASP3/NLRP3/MAPK11/CASP8/MAPK10/MAPK8/CHUK/JUN/RELA/MAPK9/RHOA/IKBKB",23
"hsa05170","hsa05170","Human immunodeficiency virus 1 infection","23/84","212/8035",9.1676271805214e-18,8.36545980222578e-17,2.89504016226992e-17,"MAPK13/MAPK12/MAPK1/NFKBIA/NFKB1/MAPK14/MAPK3/AKT1/BST2/IFNA1/FOS/CASP3/IRF3/BCL2/MAPK11/CASP8/MAPK10/MAPK8/CHUK/JUN/RELA/MAPK9/IKBKB",23
"hsa05235","hsa05235","PD-L1 expression and PD-1 checkpoint pathway in cancer","17/84","89/8035",1.62960175706516e-17,1.42753113918908e-16,4.94026637931332e-17,"MAPK13/MAPK12/MAPK1/NFKBIA/NFKB1/MAPK14/MAPK3/ZAP70/AKT1/FOS/MAPK11/JAK1/STAT1/CHUK/JUN/RELA/IKBKB",17
"hsa05140","hsa05140","Leishmaniasis","16/84","77/8035",3.76339442331059e-17,3.16993607194238e-16,1.0970218561877e-16,"MAPK13/MAPK12/MAPK1/NFKBIA/TGFB1/NFKB1/MAPK14/MAPK3/ITGB1/FOS/MAPK11/JAK1/STAT1/JUN/RELA/IL10",16
"hsa05152","hsa05152","Tuberculosis","21/84","180/8035",6.77145596637095e-17,5.4924031727231e-16,1.90075956950764e-16,"MAPK13/MAPK12/MAPK1/TGFB1/NFKB1/MAPK14/MAPK3/AKT1/IFNA1/CASP3/BCL2/MAPK11/JAK1/CASP8/MAPK10/MAPK8/STAT1/RELA/MAPK9/RHOA/IL10",21
"hsa05120","hsa05120","Epithelial cell signaling in Helicobacter pylori infection","15/84","70/8035",2.41159514476625e-16,1.88621191679932e-15,6.52762595575828e-16,"MAPK13/MAPK12/NFKBIA/NFKB1/MAPK14/CXCL8/CASP3/MAPK11/MAPK10/MAPK8/CHUK/JUN/RELA/MAPK9/IKBKB",15
"hsa05131","hsa05131","Shigellosis","22/84","236/8035",1.3859000777502e-15,1.04659350699066e-14,3.62195301626185e-15,"MAPK13/MAPK12/MAPK1/NFKBIA/NFKB1/MAPK14/MAPK3/AKT1/ITGB1/CXCL8/IRF3/BCL2/NLRP3/MAPK11/MAPK10/MAPK8/CHUK/JUN/RELA/MAPK9/RHOA/IKBKB",22
"hsa04722","hsa04722","Neurotrophin signaling pathway","17/84","119/8035",2.75807215109658e-15,2.0133926703005e-14,6.96776122382294e-15,"MAPK13/MAPK12/MAPK1/NFKBIA/NFKB1/MAPK14/MAPK3/AKT1/BCL2/MAPK11/MAPK10/MAPK8/JUN/RELA/MAPK9/RHOA/IKBKB",17
"hsa04917","hsa04917","Prolactin signaling pathway","14/84","70/8035",7.30937283512471e-15,5.16371822868487e-14,1.78701135527667e-14,"MAPK13/MAPK12/MAPK1/NFKB1/MAPK14/MAPK3/AKT1/FOS/MAPK11/MAPK10/MAPK8/STAT1/RELA/MAPK9",14
"hsa04926","hsa04926","Relaxin signaling pathway","17/84","129/8035",1.10625887351628e-14,7.57095916562707e-14,2.62008680569646e-14,"MAPK13/MAPK12/MAPK1/NFKBIA/TGFB1/NFKB1/MAPK14/MAPK3/AKT1/FOS/PRKACA/MAPK11/MAPK10/MAPK8/JUN/RELA/MAPK9",17
"hsa04210","hsa04210","Apoptosis","17/84","136/8035",2.72505128316989e-14,1.80844312428547e-13,6.25849098527055e-14,"MAPK1/NFKBIA/NFKB1/MAPK3/AKT1/FOS/CASP3/BCL2/CASP8/MAPK10/CTSB/MAPK8/CHUK/JUN/RELA/MAPK9/IKBKB",17
"hsa05418","hsa05418","Fluid shear stress and atherosclerosis","17/84","139/8035",3.94660784456366e-14,2.54207975870424e-13,8.79739209933696e-14,"MAPK13/MAPK12/NFKB1/MAPK14/PLAT/AKT1/FOS/BCL2/MAPK11/MAPK10/MAPK8/CHUK/JUN/RELA/MAPK9/RHOA/IKBKB",17
"hsa05163","hsa05163","Human cytomegalovirus infection","20/84","225/8035",8.32718654645883e-14,5.2104395819271e-13,1.80318024464672e-13,"MAPK13/MAPK12/MAPK1/NFKBIA/NFKB1/MAPK14/MAPK3/AKT1/IFNA1/CXCL8/CASP3/IRF3/PRKACA/MAPK11/JAK1/CASP8/CHUK/RELA/RHOA/IKBKB",20
"hsa05165","hsa05165","Human papillomavirus infection","23/84","330/8035",1.56248461550144e-13,9.50511474430041e-13,3.2894412957925e-13,"MAPK1/NFKB1/EIF2AK2/MAPK3/TYK2/IFNAR1/AKT1/IFNA1/ITGB1/CASP3/IRF3/PRKACA/STAT2/JAK1/CASP8/IFNAR2/STAT1/COL6A1/CHUK/IRF9/RELA/HDAC2/IKBKB",23
"hsa05212","hsa05212","Pancreatic cancer","13/84","76/8035",6.13376071294624e-13,3.63052323279791e-12,1.25641755713266e-12,"MAPK1/TGFB1/NFKB1/MAPK3/AKT1/JAK1/MAPK10/MAPK8/STAT1/CHUK/RELA/MAPK9/IKBKB",13
"hsa01522","hsa01522","Endocrine resistance","14/84","98/8035",9.80223988772538e-13,5.64918561950489e-12,1.95501737372916e-12,"MAPK13/MAPK12/MAPK1/MAPK14/MAPK3/AKT1/FOS/PRKACA/BCL2/MAPK11/MAPK10/MAPK8/JUN/MAPK9",14
"hsa04071","hsa04071","Sphingolipid signaling pathway","14/84","119/8035",1.49425249083044e-11,8.39080244850941e-11,2.90381050849641e-11,"MAPK13/MAPK12/MAPK1/NFKB1/MAPK14/MAPK3/AKT1/BCL2/MAPK11/MAPK10/MAPK8/RELA/MAPK9/RHOA",14
"hsa04068","hsa04068","FoxO signaling pathway","14/84","131/8035",5.60252057486651e-11,3.06738001473942e-10,1.06153021418523e-10,"MAPK13/MAPK12/MAPK1/TGFB1/MAPK14/MAPK3/AKT1/MAPK11/MAPK10/MAPK8/CHUK/MAPK9/IL10/IKBKB",14
"hsa05210","hsa05210","Colorectal cancer","12/84","86/8035",6.21689816139077e-11,3.32073340815751e-10,1.14920838926864e-10,"MAPK1/TGFB1/MAPK3/AKT1/FOS/CASP3/BCL2/MAPK10/MAPK8/JUN/MAPK9/RHOA",12
"hsa04217","hsa04217","Necroptosis","15/84","159/8035",6.56079195435975e-11,3.42098437620187e-10,1.18390230755364e-10,"EIF2AK2/TYK2/IFNAR1/IFNA1/STAT2/BCL2/NLRP3/JAK1/CASP8/MAPK10/IFNAR2/MAPK8/STAT1/IRF9/MAPK9",15
"hsa05168","hsa05168","Herpes simplex virus 1 infection","24/84","491/8035",8.69466825102545e-11,4.42821476040598e-10,1.53247518745124e-10,"NFKBIA/NFKB1/OAS3/EIF2AK2/TYK2/IFNAR1/AKT1/BST2/IFNA1/CASP3/IRF3/STAT2/PPP1CA/BCL2/JAK1/OAS2/CASP8/IFNAR2/STAT1/CHUK/IRF9/RELA/OAS1/IKBKB",24
"hsa04010","hsa04010","MAPK signaling pathway","19/84","294/8035",1.09096414240651e-10,5.43002607243242e-10,1.8791726854849e-10,"MAPK13/MAPK12/MAPK1/TGFB1/NFKB1/MAPK14/MAPK3/AKT1/FOS/CASP3/PRKACA/MAPK11/MAPK10/MAPK8/CHUK/JUN/RELA/MAPK9/IKBKB",19
"hsa04935","hsa04935","Growth hormone synthesis, secretion and action","13/84","119/8035",2.19489712892243e-10,1.06818326940891e-09,3.69666884871145e-10,"MAPK13/MAPK12/MAPK1/MAPK14/MAPK3/AKT1/FOS/PRKACA/MAPK11/MAPK10/MAPK8/STAT1/MAPK9",13
"hsa04662","hsa04662","B cell receptor signaling pathway","11/84","82/8035",6.39264895788798e-10,3.04345678647276e-09,1.05325108688315e-09,"MAPK1/NFKBIA/NFKB1/MAPK3/AKT1/FOS/IFITM1/CHUK/JUN/RELA/IKBKB",11
"hsa05166","hsa05166","Human T-cell leukemia virus 1 infection","16/84","219/8035",6.64562143343898e-10,3.09657679558114e-09,1.07163436328691e-09,"MAPK1/NFKBIA/TGFB1/NFKB1/MAPK3/AKT1/FOS/PRKACA/JAK1/MAPK10/MAPK8/CHUK/JUN/RELA/MAPK9/IKBKB",16
"hsa04664","hsa04664","Fc epsilon RI signaling pathway","10/84","68/8035",1.6018815580104e-09,7.30858460842244e-09,2.52928667054273e-09,"MAPK13/MAPK12/MAPK1/MAPK14/MAPK3/AKT1/MAPK11/MAPK10/MAPK8/MAPK9",10
"hsa05203","hsa05203","Viral carcinogenesis","15/84","204/8035",2.22275762140204e-09,9.93436569565404e-09,3.43799245415569e-09,"MAPK1/NFKBIA/NFKB1/EIF2AK2/MAPK3/CASP3/IRF3/PRKACA/JAK1/CASP8/JUN/IRF9/RELA/RHOA/HDAC2",15
"hsa04912","hsa04912","GnRH signaling pathway","11/84","93/8035",2.53728691418829e-09,1.11133166841447e-08,3.84599279624331e-09,"MAPK13/MAPK12/MAPK1/MAPK14/MAPK3/PRKACA/MAPK11/MAPK10/MAPK8/JUN/MAPK9",11
"hsa04932","hsa04932","Non-alcoholic fatty liver disease (NAFLD)","13/84","149/8035",3.6600206647945e-09,1.5716559325294e-08,5.43903999721784e-09,"TGFB1/NFKB1/AKT1/CXCL8/CASP3/CASP8/MAPK10/MAPK8/JUN/RELA/MAPK9/NDUFB9/IKBKB",13
"hsa05215","hsa05215","Prostate cancer","11/84","97/8035",4.00291847122714e-09,1.68584450999758e-08,5.83421315644441e-09,"MAPK1/NFKBIA/NFKB1/PLAT/MAPK3/AKT1/BCL2/CHUK/RELA/TMPRSS2/IKBKB",11
"hsa05220","hsa05220","Chronic myeloid leukemia","10/84","76/8035",4.91557293077741e-09,2.02292189917118e-08,7.00073908869621e-09,"MAPK1/NFKBIA/TGFB1/NFKB1/MAPK3/AKT1/CHUK/RELA/HDAC2/IKBKB",10
"hsa04914","hsa04914","Progesterone-mediated oocyte maturation","11/84","99/8035",4.98802660069605e-09,2.02292189917118e-08,7.00073908869621e-09,"MAPK13/MAPK12/MAPK1/MAPK14/MAPK3/AKT1/PRKACA/MAPK11/MAPK10/MAPK8/MAPK9",11
"hsa04750","hsa04750","Inflammatory mediator regulation of TRP channels","11/84","100/8035",5.55756846437573e-09,2.21292271581506e-08,7.65827616143641e-09,"MAPK13/MAPK12/BDKRB1/MAPK14/F2RL1/PRKACA/PPP1CA/MAPK11/MAPK10/MAPK8/MAPK9",11
"hsa04062","hsa04062","Chemokine signaling pathway","14/84","189/8035",7.36290669648606e-09,2.87942244023294e-08,9.96483613058263e-09,"MAPK1/NFKBIA/NFKB1/MAPK3/AKT1/CXCL10/CXCL8/PRKACA/STAT2/STAT1/CHUK/RELA/RHOA/IKBKB",14
"hsa05205","hsa05205","Proteoglycans in cancer","14/84","205/8035",2.09225001306821e-08,8.03864478705153e-08,2.78193907554776e-08,"MAPK13/MAPK12/MAPK1/TGFB1/MAPK14/MAPK3/AKT1/ITGB1/CASP3/PRKACA/PPP1CA/MAPK11/RDX/RHOA",14
"hsa04920","hsa04920","Adipocytokine signaling pathway","9/84","69/8035",3.28078030903151e-08,1.23877739254811e-07,4.28704504991414e-08,"NFKBIA/NFKB1/AKT1/MAPK10/MAPK8/CHUK/RELA/MAPK9/IKBKB",9
"hsa04261","hsa04261","Adrenergic signaling in cardiomyocytes","12/84","149/8035",3.80573010014997e-08,1.41263541005567e-07,4.8887166317716e-08,"MAPK13/MAPK12/MAPK1/MAPK14/MAPK3/AKT1/AGTR1/PRKACA/PPP1CA/BCL2/MAPK11/AGT",12
"hsa04024","hsa04024","cAMP signaling pathway","14/84","216/8035",4.06452937954224e-08,1.48355322353292e-07,5.13414237415862e-08,"MAPK1/NFKBIA/NFKB1/MAPK3/AKT1/FOS/PRKACA/PPP1CA/MAPK10/MAPK8/JUN/RELA/MAPK9/RHOA",14
"hsa05010","hsa05010","Alzheimer disease","17/84","334/8035",4.43652463979831e-08,1.59278507559972e-07,5.51216176126796e-08,"MAPK1/NFKB1/EIF2AK2/MAPK3/IDE/AKT1/CASP3/NAE1/CASP8/MAPK10/MAPK8/CHUK/RELA/MAPK9/NDUFB9/ULK2/IKBKB",17
"hsa04611","hsa04611","Platelet activation","11/84","124/8035",5.42195796095356e-08,1.91517547330457e-07,6.62786032578364e-08,"MAPK13/MAPK12/MAPK1/MAPK14/MAPK3/AKT1/ITGB1/PRKACA/PPP1CA/MAPK11/RHOA",11
"hsa04218","hsa04218","Cellular senescence","12/84","160/8035",8.42319592477627e-08,2.92806334527937e-07,1.0133168029806e-07,"MAPK13/MAPK12/MAPK1/TGFB1/NFKB1/MAPK14/MAPK3/AKT1/CXCL8/PPP1CA/MAPK11/RELA",12
"hsa04014","hsa04014","Ras signaling pathway","14/84","232/8035",9.97460351932477e-08,3.41318464176895e-07,1.18120304834109e-07,"MAPK1/NFKB1/MAPK3/ZAP70/AKT1/ARF6/PRKACA/MAPK10/MAPK8/CHUK/RELA/MAPK9/RHOA/IKBKB",14
"hsa04728","hsa04728","Dopaminergic synapse","11/84","132/8035",1.03732669745101e-07,3.49499302679648e-07,1.20951452982142e-07,"MAPK13/MAPK12/MAPK14/AKT1/FOS/PRKACA/PPP1CA/MAPK11/MAPK10/MAPK8/MAPK9",11
"hsa04140","hsa04140","Autophagy - animal","11/84","137/8035",1.52124176099586e-07,4.97455497838118e-07,1.72154750513552e-07,"MAPK1/MAPK3/AKT1/RAB8A/PRKACA/BCL2/MAPK10/CTSB/MAPK8/MAPK9/ULK2",11
"hsa04931","hsa04931","Insulin resistance","10/84","108/8035",1.52189581530383e-07,4.97455497838118e-07,1.72154750513552e-07,"NFKBIA/NFKB1/AKT1/PPP1CA/MAPK10/MAPK8/AGT/RELA/MAPK9/IKBKB",10
"hsa04623","hsa04623","Cytosolic DNA-sensing pathway","8/84","63/8035",2.47018269676288e-07,7.95544133222163e-07,2.75314480134562e-07,"NFKBIA/NFKB1/IFNA1/CXCL10/IRF3/CHUK/RELA/IKBKB",8
"hsa04723","hsa04723","Retrograde endocannabinoid signaling","11/84","148/8035",3.34587978818193e-07,1.06195315016209e-06,3.67510823415864e-07,"MAPK13/MAPK12/MAPK1/MAPK14/MAPK3/PRKACA/MAPK11/MAPK10/MAPK8/MAPK9/NDUFB9",11
"hsa05222","hsa05222","Small cell lung cancer","9/84","92/8035",4.14007028582767e-07,1.2952505608518e-06,4.48248211397883e-07,"NFKBIA/NFKB1/AKT1/ITGB1/CASP3/BCL2/CHUK/RELA/IKBKB",9
"hsa04215","hsa04215","Apoptosis - multiple species","6/84","32/8035",7.94606458104241e-07,2.45096921584266e-06,8.48208524588664e-07,"CASP3/BCL2/CASP8/MAPK10/MAPK8/MAPK9",6
"hsa04630","hsa04630","JAK-STAT signaling pathway","11/84","162/8035",8.31042585139115e-07,2.52775452979814e-06,8.74781668567489e-07,"TYK2/IFNAR1/AKT1/IFNA1/STAT2/BCL2/JAK1/IFNAR2/STAT1/IRF9/IL10",11
"hsa04510","hsa04510","Focal adhesion","12/84","199/8035",9.05013753681898e-07,2.71504126104569e-06,9.39596110527709e-07,"MAPK1/MAPK3/AKT1/ITGB1/PPP1CA/BCL2/MAPK10/MAPK8/COL6A1/JUN/MAPK9/RHOA",12
"hsa04910","hsa04910","Insulin signaling pathway","10/84","139/8035",1.61090246361106e-06,4.76740053420031e-06,1.64985743072541e-06,"MAPK1/MAPK3/PRKAR2B/AKT1/PRKACA/PPP1CA/MAPK10/MAPK8/MAPK9/IKBKB",10
"hsa05014","hsa05014","Amyotrophic lateral sclerosis (ALS)","7/84","57/8035",1.83677449879249e-06,5.36338153647407e-06,1.85610896720083e-06,"MAPK13/MAPK12/MAPK14/CASP3/BCL2/MAPK11/GPX1",7
"hsa04370","hsa04370","VEGF signaling pathway","7/84","59/8035",2.33052158748417e-06,6.71558194288203e-06,2.32406584901469e-06,"MAPK13/MAPK12/MAPK1/MAPK14/MAPK3/AKT1/MAPK11",7
"hsa05221","hsa05221","Acute myeloid leukemia","7/84","67/8035",5.55419135291219e-06,1.57969857959451e-05,5.46687323868322e-06,"MAPK1/NFKB1/MAPK3/AKT1/CHUK/RELA/IKBKB",7
"hsa04930","hsa04930","Type II diabetes mellitus","6/84","46/8035",7.30806259160191e-06,2.05187911225746e-05,7.10095150600995e-06,"MAPK1/MAPK3/MAPK10/MAPK8/MAPK9/IKBKB",6
"hsa05231","hsa05231","Choline metabolism in cancer","8/84","98/8035",7.46702743668453e-06,2.06997342865052e-05,7.16357062546683e-06,"MAPK1/MAPK3/AKT1/FOS/MAPK10/MAPK8/JUN/MAPK9",8
"hsa05146","hsa05146","Amoebiasis","8/84","102/8035",1.00597315643548e-05,2.75385151574213e-05,9.53027200833614e-06,"CTSG/TGFB1/NFKB1/CXCL8/CASP3/PRKACA/RELA/IL10",8
"hsa04064","hsa04064","NF-kappa B signaling pathway","8/84","104/8035",1.16177857727472e-05,3.14110504226128e-05,1.08704428283015e-05,"NFKBIA/NFKB1/ZAP70/CXCL8/BCL2/CHUK/RELA/IKBKB",8
"hsa04151","hsa04151","PI3K-Akt signaling pathway","14/84","354/8035",1.53600778348626e-05,4.10226469004258e-05,1.41967343274725e-05,"MAPK1/NFKB1/MAPK3/IFNAR1/AKT1/IFNA1/ITGB1/BCL2/JAK1/IFNAR2/COL6A1/CHUK/RELA/IKBKB",14
"hsa05134","hsa05134","Legionellosis","6/84","57/8035",2.58323228661657e-05,6.81599844300035e-05,2.35881705309313e-05,"NFKBIA/NFKB1/CXCL8/CASP3/CASP8/RELA",6
"hsa04012","hsa04012","ErbB signaling pathway","7/84","85/8035",2.7095893778665e-05,7.06428659229481e-05,2.4447422958194e-05,"MAPK1/MAPK3/AKT1/MAPK10/MAPK8/JUN/MAPK9",7
"hsa04114","hsa04114","Oocyte meiosis","8/84","128/8035",5.2652230337144e-05,0.000135656922868642,4.69468803006114e-05,"MAPK13/MAPK12/MAPK1/MAPK14/MAPK3/PRKACA/PPP1CA/MAPK11",8
"hsa05321","hsa05321","Inflammatory bowel disease (IBD)","6/84","65/8035",5.50098144610968e-05,0.000140083132174188,4.84786614589837e-05,"TGFB1/NFKB1/STAT1/JUN/RELA/IL10",6
"hsa04530","hsa04530","Tight junction","9/84","169/8035",6.19679262166017e-05,0.00015598822806248,5.39829484282556e-05,"ITGB1/RAB8A/PRKACA/RDX/MAPK10/MAPK8/JUN/MAPK9/RHOA",9
"hsa04614","hsa04614","Renin-angiotensin system","4/84","23/8035",8.45949927969026e-05,0.000210526175255928,7.28569315954185e-05,"CTSG/AGTR1/CPA3/AGT",4
"hsa01524","hsa01524","Platinum drug resistance","6/84","73/8035",0.000106069943458674,0.00026100356873539,9.03256762746843e-05,"MAPK1/MAPK3/AKT1/CASP3/BCL2/CASP8",6
"hsa04550","hsa04550","Signaling pathways regulating pluripotency of stem cells","8/84","143/8035",0.000115282996435241,0.00028052195799242,9.70804180507292e-05,"MAPK13/MAPK12/MAPK1/MAPK14/MAPK3/AKT1/MAPK11/JAK1",8
"hsa04072","hsa04072","Phospholipase D signaling pathway","8/84","148/8035",0.000146491876871269,0.000352546384997889,0.000122005958759183,"MAPK1/MAPK3/AKT1/AGTR1/ARF6/CXCL8/AGT/RHOA",8
"hsa01523","hsa01523","Antifolate resistance","4/84","31/8035",0.000282056140589249,0.000671416247707016,0.000232357461354987,"NFKB1/CHUK/RELA/IKBKB",4
"hsa04015","hsa04015","Rap1 signaling pathway","9/84","210/8035",0.000322875247923573,0.000760319132207124,0.000263124140922436,"MAPK13/MAPK12/MAPK1/MAPK14/MAPK3/AKT1/ITGB1/MAPK11/RHOA",9
"hsa04650","hsa04650","Natural killer cell mediated cytotoxicity","7/84","131/8035",0.000416367173586417,0.000970046925696015,0.000335704776015924,"MAPK1/MAPK3/ZAP70/IFNAR1/IFNA1/CASP3/IFNAR2",7
"hsa04270","hsa04270","Vascular smooth muscle contraction","7/84","132/8035",0.000436012264690087,0.00100512301018031,0.000347843579586551,"MAPK1/MAPK3/AGTR1/PRKACA/PPP1CA/AGT/RHOA",7
"hsa05016","hsa05016","Huntington disease","10/84","271/8035",0.00049200874151216,0.00112239494157462,0.00038842795382539,"AP2M1/CASP3/CASP8/MAPK10/MAPK8/MAPK9/NDUFB9/ULK2/GPX1/HDAC2",10
"hsa04137","hsa04137","Mitophagy - animal","5/84","65/8035",0.000559378587242521,0.00126292691346507,0.000437061945539463,"MAPK10/MAPK8/JUN/RELA/MAPK9",5
"hsa04915","hsa04915","Estrogen signaling pathway","7/84","138/8035",0.000570024249837147,0.00127382970116669,0.000440835080432595,"MAPK1/MAPK3/AKT1/FOS/PRKACA/BCL2/JUN",7
"hsa05031","hsa05031","Amphetamine addiction","5/84","69/8035",0.000736661598375666,0.00161328890044271,0.00055831194824261,"FOS/PRKACA/PPP1CA/JUN/HDAC2",5
"hsa05211","hsa05211","Renal cell carcinoma","5/84","69/8035",0.000736661598375666,0.00161328890044271,0.00055831194824261,"MAPK1/TGFB1/MAPK3/AKT1/JUN",5
"hsa04928","hsa04928","Parathyroid hormone synthesis, secretion and action","6/84","106/8035",0.000808136362189101,0.00175229567642983,0.000606418114409747,"MAPK1/MAPK3/FOS/PRKACA/BCL2/RHOA",6
"hsa04066","hsa04066","HIF-1 signaling pathway","6/84","109/8035",0.000935748581853467,0.00200910724927362,0.000695293063915889,"MAPK1/NFKB1/MAPK3/AKT1/BCL2/RELA",6
"hsa04921","hsa04921","Oxytocin signaling pathway","7/84","154/8035",0.0010920640402286,0.00232196140592296,0.000803562707168723,"MAPK1/MAPK3/FOS/PRKACA/PPP1CA/JUN/RHOA",7
"hsa04670","hsa04670","Leukocyte transendothelial migration","6/84","113/8035",0.00112944076018313,0.00234325722234144,0.000810932564328687,"MAPK13/MAPK12/MAPK14/ITGB1/MAPK11/RHOA",6
"hsa04725","hsa04725","Cholinergic synapse","6/84","113/8035",0.00112944076018313,0.00234325722234144,0.000810932564328687,"MAPK1/MAPK3/AKT1/FOS/PRKACA/BCL2",6
"hsa04150","hsa04150","mTOR signaling pathway","7/84","155/8035",0.00113417929483193,0.00234325722234144,0.000810932564328687,"MAPK1/MAPK3/AKT1/CHUK/RHOA/ULK2/IKBKB",7
"hsa01521","hsa01521","EGFR tyrosine kinase inhibitor resistance","5/84","79/8035",0.00136168044503895,0.00278699081741616,0.000964495740706386,"MAPK1/MAPK3/AKT1/BCL2/JAK1",5
"hsa04919","hsa04919","Thyroid hormone signaling pathway","6/84","119/8035",0.00147602943834956,0.00299305969443106,0.00103581013217513,"MAPK1/MAPK3/AKT1/PRKACA/STAT1/HDAC2",6
"hsa05030","hsa05030","Cocaine addiction","4/84","49/8035",0.00164659810754541,0.0033083026197472,0.00114490645816774,"NFKB1/PRKACA/JUN/RELA",4
"hsa04371","hsa04371","Apelin signaling pathway","6/84","137/8035",0.00301221889041922,0.00599705397274373,0.00207540440296827,"MAPK1/PLAT/MAPK3/AKT1/AGTR1/PRKACA",6
"hsa05202","hsa05202","Transcriptional misregulation in cancer","7/84","186/8035",0.00320934651057305,0.00633195392626576,0.00219130344960891,"NFKB1/PLAT/CXCL8/RELA/NSD2/TMPRSS2/HDAC2",7
"hsa05017","hsa05017","Spinocerebellar ataxia","5/84","98/8035",0.00351589540463297,0.00687483119298769,0.00237917734148096,"AKT1/MAPK10/MAPK8/MAPK9/ULK2",5
"hsa04927","hsa04927","Cortisol synthesis and secretion","4/84","65/8035",0.00463722078603168,0.00898718010744194,0.00311019931620197,"SCARB1/AGTR1/PRKACA/AGT",4
"hsa05206","hsa05206","MicroRNAs in cancer","9/84","310/8035",0.00488070902723762,0.00937609892074595,0.00324479270508872,"MAPK1/NFKB1/MAPK3/CASP3/BCL2/RDX/RHOA/HDAC2/IKBKB",9
"hsa04720","hsa04720","Long-term potentiation","4/84","67/8035",0.00516777552340572,0.00984124208370307,0.00340576510467013,"MAPK1/MAPK3/PRKACA/PPP1CA",4
"hsa04934","hsa04934","Cushing syndrome","6/84","155/8035",0.00551698142947374,0.0104156804573685,0.00360456136952912,"MAPK1/SCARB1/MAPK3/AGTR1/PRKACA/AGT",6
"hsa05020","hsa05020","Prion diseases","3/84","35/8035",0.00566841610294702,0.0106101121926957,0.00367184848773896,"MAPK1/MAPK3/PRKACA",3
"hsa04924","hsa04924","Renin secretion","4/84","69/8035",0.00573761720228737,0.0106486285364486,0.0036851778640918,"AGTR1/PRKACA/CTSB/AGT",4
"hsa04310","hsa04310","Wnt signaling pathway","6/84","160/8035",0.00642511197705446,0.0118243657392851,0.00409206600926954,"PRKACA/MAPK10/MAPK8/JUN/MAPK9/RHOA",6
"hsa04810","hsa04810","Regulation of actin cytoskeleton","7/84","213/8035",0.00671413743421549,0.0122533008174433,0.00424050785318873,"MAPK1/BDKRB1/MAPK3/ITGB1/PPP1CA/RDX/RHOA",7
"hsa04022","hsa04022","cGMP-PKG signaling pathway","6/84","167/8035",0.00787357277036544,0.014250516005868,0.00493168542380436,"MAPK1/MAPK3/AKT1/AGTR1/PPP1CA/RHOA",6
"hsa05219","hsa05219","Bladder cancer","3/84","41/8035",0.0088271054142786,0.0158453777518608,0.00548362027461656,"MAPK1/MAPK3/CXCL8",3
"hsa04714","hsa04714","Thermogenesis","7/84","231/8035",0.0102782103032634,0.0183002281009324,0.00633317194552815,"MAPK13/MAPK12/MAPK14/NDUFAF1/PRKACA/MAPK11/NDUFB9",7
"hsa03013","hsa03013","RNA transport","6/84","180/8035",0.0111675609656608,0.0197233536409654,0.00682567393486907,"NUP210/NUP54/NUP62/NUP214/RAE1/NUP88",6
"hsa04211","hsa04211","Longevity regulating pathway","4/84","89/8035",0.01385149440842,0.0242678182035518,0.00839837976763148,"NFKB1/AKT1/PRKACA/RELA",4
"hsa05144","hsa05144","Malaria","3/84","50/8035",0.0151768420710367,0.0263787969329923,0.00912892756152583,"TGFB1/CXCL8/IL10",3
"hsa04666","hsa04666","Fc gamma R-mediated phagocytosis","4/84","93/8035",0.0160538847683717,0.027467193470886,0.00950558966548325,"MAPK1/MAPK3/AKT1/ARF6",4
"hsa05323","hsa05323","Rheumatoid arthritis","4/84","93/8035",0.0160538847683717,0.027467193470886,0.00950558966548325,"TGFB1/FOS/CXCL8/JUN",4
"hsa04350","hsa04350","TGF-beta signaling pathway","4/84","94/8035",0.0166369188211171,0.0282440714870128,0.00977444435022792,"MAPK1/TGFB1/MAPK3/RHOA",4
"hsa05414","hsa05414","Dilated cardiomyopathy (DCM)","4/84","96/8035",0.0178425322358385,0.0300578043049895,0.0104021240565212,"TGFB1/ITGB1/PRKACA/AGT",4
"hsa04713","hsa04713","Circadian entrainment","4/84","97/8035",0.0184652777033904,0.0308694337178816,0.0106830051799446,"MAPK1/MAPK3/FOS/PRKACA",4
"hsa05224","hsa05224","Breast cancer","5/84","147/8035",0.0186117309295656,0.0308785535876884,0.0106861612992721,"MAPK1/MAPK3/AKT1/FOS/JUN",5
"hsa04925","hsa04925","Aldosterone synthesis and secretion","4/84","98/8035",0.019101421630997,0.0314527168209651,0.0108848623461162,"SCARB1/AGTR1/PRKACA/AGT",4
"hsa05226","hsa05226","Gastric cancer","5/84","149/8035",0.0196136274556675,0.0320551075581432,0.0110933321037554,"MAPK1/TGFB1/MAPK3/AKT1/BCL2",5
"hsa05213","hsa05213","Endometrial cancer","3/84","58/8035",0.0225148919800818,0.0365241581010216,0.0126399393572389,"MAPK1/MAPK3/AKT1",3
"hsa04213","hsa04213","Longevity regulating pathway - multiple species","3/84","62/8035",0.0267911476064557,0.0431416273956896,0.0149300512977152,"AKT1/PRKACA/HDAC2",3
"hsa04929","hsa04929","GnRH secretion","3/84","64/8035",0.0290810384106823,0.0464872073864192,0.0160878583601162,"MAPK1/MAPK3/AKT1",3
"hsa04141","hsa04141","Protein processing in endoplasmic reticulum","5/84","167/8035",0.0302514111883036,0.0480076742770906,0.0166140473345375,"EIF2AK2/BCL2/MAPK10/MAPK8/MAPK9",5
"hsa05223","hsa05223","Non-small cell lung cancer","3/84","66/8035",0.0314717150733757,0.0495849323817934,0.0171598900816589,"MAPK1/MAPK3/AKT1",3
"hsa04726","hsa04726","Serotonergic synapse","4/84","115/8035",0.0320283438295973,0.05010148070487,0.0173386522987293,"MAPK1/MAPK3/CASP3/PRKACA",4
"hsa04060","hsa04060","Cytokine-cytokine receptor interaction","7/84","294/8035",0.0336323846186564,0.0522375335566366,0.018077877510588,"TGFB1/IFNAR1/IFNA1/CXCL10/CXCL8/IFNAR2/IL10",7
"hsa05230","hsa05230","Central carbon metabolism in cancer","3/84","69/8035",0.0352456874547735,0.0543577855816577,0.018811634519968,"MAPK1/MAPK3/AKT1",3
"hsa04520","hsa04520","Adherens junction","3/84","71/8035",0.0378861058570861,0.058021378900013,0.0200794966633066,"MAPK1/MAPK3/RHOA",3
"hsa04115","hsa04115","p53 signaling pathway","3/84","72/8035",0.0392433818026129,0.059271038722567,0.02051196725799,"CASP3/BCL2/CASP8",3
"hsa05218","hsa05218","Melanoma","3/84","72/8035",0.0392433818026129,0.059271038722567,0.02051196725799,"MAPK1/MAPK3/AKT1",3
"hsa05214","hsa05214","Glioma","3/84","75/8035",0.0434622465512043,0.0651933698268065,0.0225615122688299,"MAPK1/MAPK3/AKT1",3
"hsa05034","hsa05034","Alcoholism","5/84","187/8035",0.0456958120105077,0.0680774342197359,0.0235596023255034,"MAPK1/MAPK3/PRKACA/PPP1CA/HDAC2",5
"hsa04960","hsa04960","Aldosterone-regulated sodium reabsorption","2/84","37/8035",0.0568197453013961,0.0829568281400383,0.028708923941758,"MAPK1/MAPK3",2
"hsa05143","hsa05143","African trypanosomiasis","2/84","37/8035",0.0568197453013961,0.0829568281400383,0.028708923941758,"F2RL1/IL10",2
"hsa05216","hsa05216","Thyroid cancer","2/84","37/8035",0.0568197453013961,0.0829568281400383,0.028708923941758,"MAPK1/MAPK3",2
"hsa04540","hsa04540","Gap junction","3/84","88/8035",0.0642165950315696,0.0931353265689652,0.032231403571091,"MAPK1/MAPK3/PRKACA",3
"hsa05410","hsa05410","Hypertrophic cardiomyopathy (HCM)","3/84","90/8035",0.0677525068302907,0.0976170986568005,0.0337824133779843,"TGFB1/ITGB1/AGT",3
"hsa04061","hsa04061","Viral protein interaction with cytokine and cytokine receptor","3/84","100/8035",0.0867138871003143,0.124119877614175,0.0429542474800319,"CXCL10/CXCL8/IL10",3
"hsa04916","hsa04916","Melanogenesis","3/84","101/8035",0.0887227513382079,0.126170665864075,0.0436639651151809,"MAPK1/MAPK3/PRKACA",3
"hsa04972","hsa04972","Pancreatic secretion","3/84","102/8035",0.0907512754205715,0.128222769787775,0.0443741380664255,"RAB8A/CPA3/RHOA",3
"hsa04672","hsa04672","Intestinal immune network for IgA production","2/84","49/8035",0.0926813391098949,0.130110341442737,0.0450273712274793,"TGFB1/IL10",2
"hsa04340","hsa04340","Hedgehog signaling pathway","2/84","50/8035",0.0959106931531806,0.133786253506666,0.0462994965271807,"PRKACA/BCL2",2
"hsa05225","hsa05225","Hepatocellular carcinoma","4/84","168/8035",0.0986981141321091,0.136595551212586,0.047271712027427,"MAPK1/TGFB1/MAPK3/AKT1",4
"hsa04913","hsa04913","Ovarian steroidogenesis","2/84","51/8035",0.0991721125242062,0.136595551212586,0.047271712027427,"SCARB1/PRKACA",2
"hsa04961","hsa04961","Endocrine and other factor-regulated calcium reabsorption","2/84","53/8035",0.105787150619153,0.143896807363942,0.0497984625340245,"AP2M1/PRKACA",2
"hsa05320","hsa05320","Autoimmune thyroid disease","2/84","53/8035",0.105787150619153,0.143896807363942,0.0497984625340245,"IFNA1/IL10",2
"hsa04923","hsa04923","Regulation of lipolysis in adipocytes","2/84","55/8035",0.112518628910572,0.152108516860588,0.0526402942271682,"AKT1/PRKACA",2
"hsa04724","hsa04724","Glutamatergic synapse","3/84","114/8035",0.116546815791206,0.156587439621313,0.0541903179655589,"MAPK1/MAPK3/PRKACA",3
"hsa04360","hsa04360","Axon guidance","4/84","181/8035",0.12079285914364,0.161302659466202,0.0558221171908991,"MAPK1/MAPK3/ITGB1/RHOA",4
"hsa04730","hsa04730","Long-term depression","2/84","60/8035",0.129807771286604,0.171252421155218,0.0592654377465788,"MAPK1/MAPK3",2
"hsa05416","hsa05416","Viral myocarditis","2/84","60/8035",0.129807771286604,0.171252421155218,0.0592654377465788,"CASP3/CASP8",2
"hsa00310","hsa00310","Lysine degradation","2/84","61/8035",0.13333738714186,0.174855615473457,0.0605123975683197,"AASS/NSD2",2
"hsa04976","hsa04976","Bile secretion","2/84","72/8035",0.173434937236446,0.22608482889751,0.0782413250690735,"SCARB1/PRKACA",2
"hsa05100","hsa05100","Bacterial invasion of epithelial cells","2/84","73/8035",0.177176055572037,0.229595006924711,0.0794560946819475,"ITGB1/RHOA",2
"hsa04918","hsa04918","Thyroid hormone synthesis","2/84","74/8035",0.180930069274913,0.233080501007094,0.0806623219058435,"PRKACA/GPX1",2
"hsa05012","hsa05012","Parkinson disease","3/84","142/8035",0.185405373498069,0.237448987111562,0.0821741267581469,"CASP3/PRKACA/NDUFB9",3
"hsa05412","hsa05412","Arrhythmogenic right ventricular cardiomyopathy (ARVC)","2/84","77/8035",0.192262870043463,0.244799817090224,0.0847180333116852,"PKP2/ITGB1",2
"hsa04610","hsa04610","Complement and coagulation cascades","2/84","85/8035",0.222892971563504,0.280938079932009,0.0972244256433775,"BDKRB1/PLAT",2
"hsa04977","hsa04977","Vitamin digestion and absorption","1/84","24/8035",0.223211077206254,0.280938079932009,0.0972244256433775,"SCARB1",1
"hsa04512","hsa04512","ECM-receptor interaction","2/84","88/8035",0.234488059007252,0.293445056700504,0.101552723299381,"ITGB1/COL6A1",2
"hsa04144","hsa04144","Endocytosis","4/84","248/8035",0.260472538313464,0.32375358332834,0.112041614994667,"AP2M1/ARF6/RAB8A/RHOA",4
"hsa04974","hsa04974","Protein digestion and absorption","2/84","95/8035",0.261663855018795,0.32375358332834,0.112041614994667,"CPA3/COL6A1",2
"hsa05310","hsa05310","Asthma","1/84","31/8035",0.278484212164208,0.342629452044728,0.118573999265659,"IL10",1
"hsa04080","hsa04080","Neuroactive ligand-receptor interaction","5/84","340/8035",0.282489854548745,0.345616079028912,0.119607583225579,"CTSG/BDKRB1/AGTR1/F2RL1/AGT",5
"hsa04136","hsa04136","Autophagy - other","1/84","32/8035",0.28605634187163,0.348035215943817,0.120444775524897,"ULK2",1
"hsa04922","hsa04922","Glucagon signaling pathway","2/84","106/8035",0.304394552445816,0.36830059108085,0.127458027194526,"AKT1/PRKACA",2
"hsa04020","hsa04020","Calcium signaling pathway","3/84","193/8035",0.328140679551295,0.392614444102701,0.13587233826193,"BDKRB1/AGTR1/PRKACA",3
"hsa05330","hsa05330","Allograft rejection","1/84","38/8035",0.329867843447018,0.392614444102701,0.13587233826193,"IL10",1
"hsa05340","hsa05340","Primary immunodeficiency","1/84","38/8035",0.329867843447018,0.392614444102701,0.13587233826193,"ZAP70",1
"hsa04152","hsa04152","AMPK signaling pathway","2/84","120/8035",0.358114065594152,0.423929623595239,0.14670960297456,"AKT1/RAB8A",2
"hsa04975","hsa04975","Fat digestion and absorption","1/84","43/8035",0.364339771532946,0.428980698740404,0.148457631864019,"SCARB1",1
"hsa04962","hsa04962","Vasopressin-regulated water reabsorption","1/84","44/8035",0.371020885045362,0.43451108997291,0.150371537986299,"PRKACA",1
"hsa04110","hsa04110","Cell cycle","2/84","124/8035",0.373216737597829,0.434757795393216,0.150456915492966,"TGFB1/HDAC2",2
"hsa03022","hsa03022","Basal transcription factors","1/84","45/8035",0.377632603936138,0.437574287100604,0.15143162062602,"GTF2F2",1
"hsa04142","hsa04142","Lysosome","2/84","128/8035",0.388179864614894,0.443277218458812,0.153405237822804,"CTSG/CTSB",2
"hsa00514","hsa00514","Other types of O-glycan biosynthesis","1/84","47/8035",0.390650699372377,0.443277218458812,0.153405237822804,"POFUT1",1
"hsa00565","hsa00565","Ether lipid metabolism","1/84","47/8035",0.390650699372377,0.443277218458812,0.153405237822804,"PLD3",1
"hsa04973","hsa04973","Carbohydrate digestion and absorption","1/84","47/8035",0.390650699372377,0.443277218458812,0.153405237822804,"AKT1",1
"hsa04979","hsa04979","Cholesterol metabolism","1/84","50/8035",0.409674954329568,0.46009648717013,0.159225893180723,"SCARB1",1
"hsa05110","hsa05110","Vibrio cholerae infection","1/84","50/8035",0.409674954329568,0.46009648717013,0.159225893180723,"PRKACA",1
"hsa05322","hsa05322","Systemic lupus erythematosus","2/84","136/8035",0.417632500806165,0.466640396308929,0.161490548109795,"CTSG/IL10",2
"hsa04330","hsa04330","Notch signaling pathway","1/84","53/8035",0.428112112601465,0.475921587105182,0.164702495897972,"HDAC2",1
"hsa00480","hsa00480","Glutathione metabolism","1/84","57/8035",0.451812600144867,0.49973211834205,0.172942622065021,"GPX1",1
"hsa04145","hsa04145","Phagosome","2/84","152/8035",0.474330280314067,0.522001665270255,0.180649458781343,"SCARB1/ITGB1",2
"hsa00590","hsa00590","Arachidonic acid metabolism","1/84","63/8035",0.485555063901449,0.531682794972087,0.18399981368897,"GPX1",1
"hsa04390","hsa04390","Hippo signaling pathway","2/84","157/8035",0.491374659126269,0.535378359943547,0.185278740283275,"TGFB1/PPP1CA",2
"hsa03010","hsa03010","Ribosome","2/84","158/8035",0.494742654355605,0.536379412395433,0.185625175162082,"MRPS2/MRPS5",2
"hsa04971","hsa04971","Gastric acid secretion","1/84","76/8035",0.55178276390406,0.595273031009798,0.206006528395604,"PRKACA",1
"hsa04612","hsa04612","Antigen processing and presentation","1/84","78/8035",0.561194475520795,0.599519951897825,0.207476263093696,"CTSB",1
"hsa04721","hsa04721","Synaptic vesicle cycle","1/84","78/8035",0.561194475520795,0.599519951897825,0.207476263093696,"AP2M1",1
"hsa00983","hsa00983","Drug metabolism - other enzymes","1/84","79/8035",0.565826832446302,0.601534350998738,0.20817338751218,"IMPDH2",1
"hsa04742","hsa04742","Taste transduction","1/84","83/8035",0.58387795133327,0.61772594851201,0.213776824286781,"PRKACA",1
"hsa04911","hsa04911","Insulin secretion","1/84","86/8035",0.59692773302307,0.628496026596406,0.217504032275613,"PRKACA",1
"hsa04727","hsa04727","GABAergic synapse","1/84","89/8035",0.609572988077903,0.638183103530291,0.220856445345739,"PRKACA",1
"hsa03015","hsa03015","mRNA surveillance pathway","1/84","91/8035",0.617784556842109,0.638183103530291,0.220856445345739,"PPP1CA",1
"hsa04970","hsa04970","Salivary secretion","1/84","91/8035",0.617784556842109,0.638183103530291,0.220856445345739,"PRKACA",1
"hsa05032","hsa05032","Morphine addiction","1/84","91/8035",0.617784556842109,0.638183103530291,0.220856445345739,"PRKACA",1
"hsa05150","hsa05150","Staphylococcus aureus infection","1/84","96/8035",0.637574340007134,0.655534180570716,0.226861143961026,"IL10",1
"hsa00564","hsa00564","Glycerophospholipid metabolism","1/84","98/8035",0.645203662330948,0.660278514254568,0.228503018631718,"PLD3",1
"hsa03008","hsa03008","Ribosome biogenesis in eukaryotes","1/84","111/8035",0.691067748028406,0.703924822410329,0.243607725131188,"MPHOSPH10",1
"hsa00230","hsa00230","Purine metabolism","1/84","130/8035",0.747754749191414,0.758140231819072,0.262370087435584,"IMPDH2",1
"hsa00190","hsa00190","Oxidative phosphorylation","1/84","133/8035",0.755711815170855,0.762676901024964,0.26394009552414,"NDUFB9",1
"hsa04514","hsa04514","Cell adhesion molecules (CAMs)","1/84","148/8035",0.791924956859078,0.795557640147422,0.275319154485049,"ITGB1",1
"hsa04740","hsa04740","Olfactory transduction","1/84","448/8035",0.992131948629866,0.992131948629866,0.343347754392455,"PRKACA",1
