"","ID","Description","GeneRatio","BgRatio","pvalue","p.adjust","qvalue","geneID","Count"
"WP35","WP35","G Protein Signaling Pathways","4/32","97/6457",0.00124648627907843,0.122020595576403,0.105551948231802,"PRKAR2B/PRKACA/AKAP9/RHOA",4
"WP474","WP474","Endochondral Ossification","3/32","65/6457",0.00392128041616412,0.122020595576403,0.105551948231802,"PLAT/ADAMTS1/PRKACA",3
"WP4352","WP4352","Ciliary landscape","5/32","220/6457",0.00416588832128636,0.122020595576403,0.105551948231802,"NINL/RAB8A/STOM/HDAC2/NUP88",5
"WP176","WP176","Folate Metabolism","3/32","70/6457",0.00483249883470903,0.122020595576403,0.105551948231802,"PLAT/SCARB1/GPX1",3
"WP3869","WP3869","Cannabinoid receptor signaling","2/32","29/6457",0.00888763900508705,0.135741984536827,0.117421414450825,"PRKAR2B/PRKACA",2
"WP3965","WP3965","Lipid Metabolism Pathway","2/32","29/6457",0.00888763900508705,0.135741984536827,0.117421414450825,"PRKAR2B/PRKACA",2
"WP15","WP15","Selenium Micronutrient Network","3/32","89/6457",0.00940786031443356,0.135741984536827,0.117421414450825,"PLAT/SCARB1/GPX1",3
"WP2012","WP2012","miRs in Muscle Cell Differentiation","2/32","38/6457",0.0149689551914513,0.167984941592954,0.145312664431633,"PRKAR2B/PRKACA",2
"WP4136","WP4136","Fibrin Complement Receptor 3 Signaling Pathway","2/32","38/6457",0.0149689551914513,0.167984941592954,0.145312664431633,"PLAT/RHOA",2
"WP2038","WP2038","Regulation of Microtubule Cytoskeleton","2/32","49/6457",0.0242097303915637,0.195886526054287,0.169448480067804,"PRKACA/MARK1",2
"WP4217","WP4217","Ebola Virus Pathway on Host","3/32","132/6457",0.0268929078754989,0.195886526054287,0.169448480067804,"ITGB1/MFGE8/RHOA",3
"WP366","WP366","TGF-beta Signaling Pathway","3/32","133/6457",0.0274222280238368,0.195886526054287,0.169448480067804,"ITGB1/NUP214/RHOA",3
"WP1533","WP1533","Vitamin B12 Metabolism","2/32","53/6457",0.0280230293771495,0.195886526054287,0.169448480067804,"PLAT/SCARB1",2
"WP3888","WP3888","VEGFA-VEGFR2 Signaling Pathway","4/32","238/6457",0.0287922129476816,0.195886526054287,0.169448480067804,"ARF6/ADAMTS1/ITGB1/RHOA",4
"WP2272","WP2272","Pathogenic Escherichia coli infection","2/32","55/6457",0.0300148593398098,0.195886526054287,0.169448480067804,"ITGB1/RHOA",2
"WP4324","WP4324","Mitochondrial complex I assembly model OXPHOS system","2/32","56/6457",0.0310315288798871,0.195886526054287,0.169448480067804,"NDUFAF1/NDUFB9",2
"WP61","WP61","Notch Signaling Pathway","2/32","63/6457",0.0385215751921953,0.228863476141866,0.19797465888249,"TLE1/HDAC2",2
"WP3680","WP3680","Association Between Physico-Chemical Features and Toxicity Associated Pathways","2/32","68/6457",0.0442525736348413,0.24830610761772,0.214793193666189,"RHOA/GPX1",2
"WP1982","WP1982","Sterol Regulatory Element-Binding Proteins (SREBP) signalling","2/32","73/6457",0.0502809327757236,0.267282853176215,0.231208721350973,"SCARB1/PRKACA",2
"WP2118","WP2118","Arrhythmogenic Right Ventricular Cardiomyopathy","2/32","76/6457",0.0540335633397852,0.272869494865915,0.23604135564222,"PKP2/ITGB1",2
"WP4223","WP4223","Ras Signaling","3/32","186/6457",0.0633456373809479,0.30466235121313,0.263543253264094,"ARF6/PRKACA/RHOA",3
"WP2436","WP2436","Dopamine metabolism","1/32","14/6457",0.0672563272033911,0.308767683979205,0.267094505161793,"PRKACA",1
"WP2813","WP2813","Mammary gland development pathway - Embryonic development (Stage 1 of 4)","1/32","18/6457",0.0856533576234288,0.34897408794355,0.301874406454556,"ITGB1",1
"WP3413","WP3413","NOTCH1 regulation of human endothelial cell calcification","1/32","18/6457",0.0856533576234288,0.34897408794355,0.301874406454556,"PLAT",1
"WP2064","WP2064","Neural Crest Differentiation","2/32","102/6457",0.0902720403033935,0.34897408794355,0.301874406454556,"ITGB1/HDAC2",2
"WP1602","WP1602","Nicotine Activity on Dopaminergic Neurons","1/32","22/6457",0.103698655099144,0.34897408794355,0.301874406454556,"PRKACA",1
"WP100","WP100","Glutathione metabolism","1/32","23/6457",0.108155786884199,0.34897408794355,0.301874406454556,"GPX1",1
"WP272","WP272","Blood Clotting Cascade","1/32","23/6457",0.108155786884199,0.34897408794355,0.301874406454556,"PLAT",1
"WP712","WP712","Estrogen signaling pathway","1/32","23/6457",0.108155786884199,0.34897408794355,0.301874406454556,"PRKACA",1
"WP1528","WP1528","Physiological and Pathological Hypertrophy  of the Heart","1/32","25/6457",0.11700572516654,0.34897408794355,0.301874406454556,"RHOA",1
"WP2035","WP2035","Follicle Stimulating Hormone (FSH) signaling pathway","1/32","27/6457",0.125770561798485,0.34897408794355,0.301874406454556,"PRKACA",1
"WP2643","WP2643","Nanoparticle-mediated activation of receptor signaling","1/32","29/6457",0.134451088971405,0.34897408794355,0.301874406454556,"ITGB1",1
"WP2870","WP2870","Extracellular vesicle-mediated signaling in recipient cells","1/32","30/6457",0.138759982119027,0.34897408794355,0.301874406454556,"MFGE8",1
"WP3850","WP3850","Factors and pathways affecting insulin-like growth factor (IGF1)-Akt signaling","1/32","31/6457",0.143048091745944,0.34897408794355,0.301874406454556,"ITGB1",1
"WP3996","WP3996","Ethanol effects on histone modifications","1/32","31/6457",0.143048091745944,0.34897408794355,0.301874406454556,"HDAC2",1
"WP4159","WP4159","GABA receptor Signaling","1/32","33/6457",0.151562348114008,0.34897408794355,0.301874406454556,"AP2M1",1
"WP430","WP430","Statin Pathway","1/32","33/6457",0.151562348114008,0.34897408794355,0.301874406454556,"SCARB1",1
"WP313","WP313","Signaling of Hepatocyte Growth Factor Receptor","1/32","34/6457",0.155788687600364,0.34897408794355,0.301874406454556,"ITGB1",1
"WP408","WP408","Oxidative Stress","1/32","34/6457",0.155788687600364,0.34897408794355,0.301874406454556,"GPX1",1
"WP244","WP244","Alpha 6 Beta 4 signaling pathway","1/32","35/6457",0.159994629060241,0.34897408794355,0.301874406454556,"RHOA",1
"WP3414","WP3414","Initiation of transcription and translation elongation at the HIV-1 LTR","1/32","37/6457",0.168345698622977,0.34897408794355,0.301874406454556,"HDAC2",1
"WP51","WP51","Regulation of Actin Cytoskeleton","2/32","151/6457",0.171441215805036,0.34897408794355,0.301874406454556,"RDX/RHOA",2
"WP536","WP536","Calcium Regulation in the Cardiac Cell","2/32","151/6457",0.171441215805036,0.34897408794355,0.301874406454556,"PRKAR2B/PRKACA",2
"WP2447","WP2447","Amyotrophic lateral sclerosis (ALS)","1/32","38/6457",0.172491016013019,0.34897408794355,0.301874406454556,"GPX1",1
"WP2526","WP2526","PDGF Pathway","1/32","39/6457",0.176616313954689,0.34897408794355,0.301874406454556,"RHOA",1
"WP4150","WP4150","Wnt Signaling in Kidney Disease","1/32","39/6457",0.176616313954689,0.34897408794355,0.301874406454556,"RHOA",1
"WP4320","WP4320","The effect of progerin on the involved genes in Hutchinson-Gilford Progeria Syndrome","1/32","39/6457",0.176616313954689,0.34897408794355,0.301874406454556,"HDAC2",1
"WP2857","WP2857","Mesodermal Commitment Pathway","2/32","157/6457",0.182120433375233,0.34897408794355,0.301874406454556,"PRKACA/CEP250",2
"WP289","WP289","Myometrial Relaxation and Contraction Pathways","2/32","158/6457",0.183910836409342,0.34897408794355,0.301874406454556,"PRKAR2B/PRKACA",2
"WP524","WP524","G13 Signaling Pathway","1/32","41/6457",0.184807225381921,0.34897408794355,0.301874406454556,"RHOA",1
"WP2636","WP2636","Common Pathways Underlying Drug Addiction","1/32","42/6457",0.188873024756575,0.34897408794355,0.301874406454556,"PRKACA",1
"WP2911","WP2911","miRNA targets in ECM and membrane receptors","1/32","43/6457",0.192919176464726,0.34897408794355,0.301874406454556,"COL6A1",1
"WP405","WP405","Eukaryotic Transcription Initiation","1/32","43/6457",0.192919176464726,0.34897408794355,0.301874406454556,"GTF2F2",1
"WP437","WP437","EGF/EGFR Signaling Pathway","2/32","164/6457",0.194710135803774,0.34897408794355,0.301874406454556,"AP2M1/ARF6",2
"WP706","WP706","Sudden Infant Death Syndrome (SIDS) Susceptibility Pathways","2/32","164/6457",0.194710135803774,0.34897408794355,0.301874406454556,"PRKAR2B/PRKACA",2
"WP4249","WP4249","Hedgehog Signaling Pathway","1/32","44/6457",0.196945772403786,0.34897408794355,0.301874406454556,"PRKACA",1
"WP716","WP716","Vitamin A and Carotenoid Metabolism","1/32","44/6457",0.196945772403786,0.34897408794355,0.301874406454556,"SCARB1",1
"WP28","WP28","Selenium Metabolism and Selenoproteins","1/32","46/6457",0.20494066248826,0.353155627441497,0.305491579756584,"GPX1",1
"WP268","WP268","Notch Signaling","1/32","47/6457",0.208909138357917,0.353155627441497,0.305491579756584,"HDAC2",1
"WP4008","WP4008","NO/cGMP/PKG mediated Neuroprotection","1/32","48/6457",0.212858421910577,0.353155627441497,0.305491579756584,"AKAP9",1
"WP286","WP286","IL-3 Signaling Pathway","1/32","49/6457",0.216788602983889,0.353155627441497,0.305491579756584,"PRKACA",1
"WP4312","WP4312","Rett syndrome causing genes","1/32","49/6457",0.216788602983889,0.353155627441497,0.305491579756584,"IMPDH2",1
"WP2267","WP2267","Synaptic Vesicle Pathway","1/32","52/6457",0.228465423616389,0.361390375740494,0.312614915961032,"AP2M1",1
"WP363","WP363","Wnt Signaling Pathway","1/32","53/6457",0.232320085044066,0.361390375740494,0.312614915961032,"RHOA",1
"WP3286","WP3286","Copper homeostasis","1/32","54/6457",0.236156087117551,0.361390375740494,0.312614915961032,"ADAM9",1
"WP3940","WP3940","One carbon metabolism and related pathways","1/32","54/6457",0.236156087117551,0.361390375740494,0.312614915961032,"GPX1",1
"WP558","WP558","Complement and Coagulation Cascades","1/32","59/6457",0.255059253213687,0.384492307083319,0.332598869076763,"PLAT",1
"WP306","WP306","Focal Adhesion","2/32","202/6457",0.264586597874859,0.389361824762146,0.336811166808318,"ITGB1/RHOA",2
"WP623","WP623","Oxidative phosphorylation","1/32","62/6457",0.266182775194425,0.389361824762146,0.336811166808318,"NDUFB9",1
"WP3945","WP3945","TYROBP Causal Network","1/32","63/6457",0.269854730033171,0.389361824762146,0.336811166808318,"GPX1",1
"WP2324","WP2324","AGE/RAGE pathway","1/32","66/6457",0.280764112009097,0.399396835393223,0.345491790908155,"RHOA",1
"WP3303","WP3303","RAC1/PAK1/p38/MMP2 Pathway","1/32","69/6457",0.291515512644417,0.408931483015085,0.353739584056822,"ITGB1",1
"WP2572","WP2572","Primary Focal Segmental Glomerulosclerosis FSGS","1/32","74/6457",0.309089446504942,0.419947538997188,0.363268845615077,"ITGB1",1
"WP4216","WP4216","Chromosomal and microsatellite instability in colorectal cancer ","1/32","74/6457",0.309089446504942,0.419947538997188,0.363268845615077,"RHOA",1
"WP2034","WP2034","Leptin signaling pathway","1/32","76/6457",0.31600012835432,0.419947538997188,0.363268845615077,"RHOA",1
"WP2037","WP2037","Prolactin Signaling Pathway","1/32","76/6457",0.31600012835432,0.419947538997188,0.363268845615077,"ITGB1",1
"WP4263","WP4263","Pancreatic adenocarcinoma pathway","1/32","89/6457",0.359314640103267,0.471308813641947,0.407698087882039,"RHOA",1
"WP138","WP138","Androgen receptor signaling pathway","1/32","91/6457",0.365738013548763,0.473583838056732,0.409666061060018,"RHOA",1
"WP2355","WP2355","Corticotropin-releasing hormone signaling pathway","1/32","93/6457",0.372098980550409,0.475721481463182,0.411515195012445,"RHOA",1
"WP2806","WP2806","Human Complement System","1/32","99/6457",0.390813285619746,0.490760649459424,0.424524584733009,"PRKACA",1
"WP1544","WP1544","MicroRNAs in cardiomyocyte hypertrophy","1/32","102/6457",0.399966664880962,0.490760649459424,0.424524584733009,"RHOA",1
"WP185","WP185","Integrin-mediated Cell Adhesion","1/32","104/6457",0.405994745914257,0.490760649459424,0.424524584733009,"ITGB1",1
"WP111","WP111","Electron Transport Chain (OXPHOS system in mitochondria)","1/32","106/6457",0.411964141427854,0.490760649459424,0.424524584733009,"NDUFB9",1
"WP399","WP399","Wnt Signaling Pathway and Pluripotency","1/32","107/6457",0.414927005146057,0.490760649459424,0.424524584733009,"RHOA",1
"WP4321","WP4321","Thermogenesis","1/32","108/6457",0.417875404490203,0.490760649459424,0.424524584733009,"PRKACA",1
"WP615","WP615","Senescence and Autophagy in Cancer","1/32","108/6457",0.417875404490203,0.490760649459424,0.424524584733009,"PLAT",1
"WP710","WP710","DNA Damage Response (only ATM dependent)","1/32","115/6457",0.438114899354167,0.507965568346956,0.439407422332438,"RHOA",1
"WP428","WP428","Wnt Signaling","1/32","118/6457",0.446578740094965,0.507965568346956,0.439407422332438,"RHOA",1
"WP2431","WP2431","Spinal Cord Injury","1/32","120/6457",0.452152543725348,0.507965568346956,0.439407422332438,"RHOA",1
"WP3932","WP3932","Focal Adhesion-PI3K-Akt-mTOR-signaling pathway","2/32","309/6457",0.457333281867121,0.507965568346956,0.439407422332438,"ITGB1/RAB8A",2
"WP179","WP179","Cell Cycle","1/32","122/6457",0.457671947718545,0.507965568346956,0.439407422332438,"HDAC2",1
"WP2882","WP2882","Nuclear Receptors Meta-Pathway","2/32","322/6457",0.479086903670224,0.525954100768398,0.454968112181105,"MFGE8/STOM",2
"WP4172","WP4172","PI3K-Akt Signaling Pathway","2/32","345/6457",0.516332833416317,0.558555884127094,0.483169759067731,"ITGB1/COL6A1",2
"WP2853","WP2853","Endoderm Differentiation","1/32","146/6457",0.519844090177692,0.558555884127094,0.483169759067731,"CEP250",1
"WP2059","WP2059","Alzheimers Disease","1/32","150/6457",0.529511096433093,0.562953902523604,0.486974193949548,"IDE",1
"WP4396","WP4396","Nonalcoholic fatty liver disease","1/32","160/6457",0.552860992150336,0.578025349492243,0.500011506074582,"NDUFB9",1
"WP481","WP481","Insulin Signaling","1/32","161/6457",0.555133256443045,0.578025349492243,0.500011506074582,"ARF6",1
"WP4239","WP4239","Epithelial to mesenchymal transition in colorectal cancer","1/32","164/6457",0.561883133831732,0.579083637928622,0.500926961418193,"PKP2",1
"WP3594","WP3594","Circadian rhythm related genes","1/32","207/6457",0.648385467171832,0.661484163478334,0.572206207073494,"HDAC2",1
"WP382","WP382","MAPK Signaling Pathway","1/32","249/6457",0.716778015867007,0.723945796025677,0.626237634915385,"PRKACA",1
"WP455","WP455","GPCRs, Class A Rhodopsin-like","1/32","258/6457",0.729657633185736,0.729657633185736,0.631178567529089,"F2RL1",1
